Analyse de la variance
…
## Question 

<a class=question> Quels sont les niveaux de pratiques sportives correspondant à des fréquences cardiaques différentes ?</a>

--

Calcul des moyennes par niveau de pratique sportive

```
# A tibble: 5 x 2
  Sport     m
  <int> <dbl>
1     1  80.6
2     2  81.8
3     3  85.4
4     4  85.4
# … with 1 more row
```
…
