Analyse de la variance
…
---

count: false

.panel1-var_est-user[

```r
*freqdata %>%  group_by(Sexe)
```
]
 
.panel2-var_est-user[

```
# A tibble: 40 x 3
# Groups:   Sexe [2]
  freqC Sport Sexe 
  <dbl> <int> <chr>
1    82     1 M    
2    82     1 F    
3    77     1 M    
4    79     1 F    
# … with 36 more rows
```
…
---
count: false

.panel1-var_est-user[

```r
freqdata %>%  group_by(Sexe) %>%
* mutate(yhat =  mean(freqC))
```
]
 
.panel2-var_est-user[

```
# A tibble: 40 x 4
# Groups:   Sexe [2]
  freqC Sport Sexe   yhat
  <dbl> <int> <chr> <dbl>
1    82     1 M      84.6
2    82     1 F      84.3
3    77     1 M      84.6
4    79     1 F      84.3
# … with 36 more rows
```
…
.panel1-var_est-user[

```r
freqdata %>%  group_by(Sexe) %>%
  mutate(yhat =  mean(freqC)) %>%
* mutate( Ehat = freqC-yhat,Ehat_2 = Ehat^2)
```
]
 
.panel2-var_est-user[

```
# A tibble: 40 x 6
# Groups:   Sexe [2]
  freqC Sport Sexe   yhat  Ehat Ehat_2
  <dbl> <int> <chr> <dbl> <dbl>  <dbl>
1    82     1 M      84.6 -2.55   6.50
2    82     1 F      84.3 -2.30   5.29
3    77     1 M      84.6 -7.55  57.0 
4    79     1 F      84.3 -5.30  28.1 
# … with 36 more rows
```
…
count: false

.panel1-rss-user[

```r
*freqdata %>% group_by(Sexe) %>%
* mutate(m= mean(freqC))
```
]
 
.panel2-rss-user[

```
# A tibble: 40 x 4
# Groups:   Sexe [2]
  freqC Sport Sexe      m
  <dbl> <int> <chr> <dbl>
1    82     1 M      84.6
2    82     1 F      84.3
3    77     1 M      84.6
4    79     1 F      84.3
# … with 36 more rows
```
…
.panel1-rss-user[

```r
freqdata %>% group_by(Sexe) %>%
  mutate(m= mean(freqC)) %>%
* mutate( Ehat = freqC - m)
```
]
 
.panel2-rss-user[

```
# A tibble: 40 x 5
# Groups:   Sexe [2]
  freqC Sport Sexe      m  Ehat
  <dbl> <int> <chr> <dbl> <dbl>
1    82     1 M      84.6 -2.55
2    82     1 F      84.3 -2.30
3    77     1 M      84.6 -7.55
4    79     1 F      84.3 -5.30
# … with 36 more rows
```
…
.panel1-rss-user[

```r
freqdata %>% group_by(Sexe) %>%
  mutate(m= mean(freqC)) %>%
  mutate( Ehat = freqC - m) %>%
* mutate( E2hat = Ehat^2)
```
]
 
.panel2-rss-user[

```
# A tibble: 40 x 6
# Groups:   Sexe [2]
  freqC Sport Sexe      m  Ehat E2hat
  <dbl> <int> <chr> <dbl> <dbl> <dbl>
1    82     1 M      84.6 -2.55  6.50
2    82     1 F      84.3 -2.30  5.29
3    77     1 M      84.6 -7.55 57.0 
4    79     1 F      84.3 -5.30 28.1 
# … with 36 more rows
```
…
.panel1-rss-user[

```r
freqdata %>% group_by(Sexe) %>%
  mutate(m= mean(freqC)) %>%
  mutate( Ehat = freqC - m) %>%
  mutate( E2hat = Ehat^2) %>%
* ungroup()
```
]
 
.panel2-rss-user[

```
# A tibble: 40 x 6
  freqC Sport Sexe      m  Ehat E2hat
  <dbl> <int> <chr> <dbl> <dbl> <dbl>
1    82     1 M      84.6 -2.55  6.50
2    82     1 F      84.3 -2.30  5.29
3    77     1 M      84.6 -7.55 57.0 
4    79     1 F      84.3 -5.30 28.1 
# … with 36 more rows
```
…
