Visualisation
…
.panel1-tidying_eval2-auto[

```r
dpt_complete %>%
  select(ID_GEOFLA, CODE_DEPT, NOM_DEPT, NOM_REGION,
         p2020, p2017, p2012, p2007, p1999) %>%
* pivot_longer(cols = starts_with("p"), names_to = 'Year', values_to = 'Population'  )
```
]
 
.panel2-tidying_eval2-auto[

```
# A tibble: 480 x 7
  ID_GEOFLA CODE_DEPT NOM_DEPT NOM_REGION                  geometry Year 
      <dbl> <chr>     <chr>    <chr>             <MULTIPOLYGON [m]> <chr>
1         1 01        AIN      RHONE-ALP… (((919195 6541470, 91893… p2020
2         1 01        AIN      RHONE-ALP… (((919195 6541470, 91893… p2017
3         1 01        AIN      RHONE-ALP… (((919195 6541470, 91893… p2012
4         1 01        AIN      RHONE-ALP… (((919195 6541470, 91893… p2007
# … with 476 more rows, and 1 more variable: Population <dbl>
```
…
.panel1-tidying_eval2-auto[

```r
dpt_complete %>%
  select(ID_GEOFLA, CODE_DEPT, NOM_DEPT, NOM_REGION,
         p2020, p2017, p2012, p2007, p1999) %>%
  pivot_longer(cols = starts_with("p"), names_to = 'Year', values_to = 'Population'  )%>%
* group_by(NOM_REGION, Year)
```
]
 
.panel2-tidying_eval2-auto[

```
# A tibble: 480 x 7
# Groups:   NOM_REGION, Year [110]
  ID_GEOFLA CODE_DEPT NOM_DEPT NOM_REGION                  geometry Year 
      <dbl> <chr>     <chr>    <chr>             <MULTIPOLYGON [m]> <chr>
1         1 01        AIN      RHONE-ALP… (((919195 6541470, 91893… p2020
2         1 01        AIN      RHONE-ALP… (((919195 6541470, 91893… p2017
3         1 01        AIN      RHONE-ALP… (((919195 6541470, 91893… p2012
4         1 01        AIN      RHONE-ALP… (((919195 6541470, 91893… p2007
# … with 476 more rows, and 1 more variable: Population <dbl>
```
…
```r
dpt_complete %>%
  select(ID_GEOFLA, CODE_DEPT, NOM_DEPT, NOM_REGION,
         p2020, p2017, p2012, p2007, p1999) %>%
  pivot_longer(cols = starts_with("p"), names_to = 'Year', values_to = 'Population'  )%>%
  group_by(NOM_REGION, Year) %>%
* summarise(pop = sum(Population), geometry= st_union(geometry),
*           area = units::set_units(st_area(geometry), km^2), dens = (pop/area))
```
]
 
.panel2-tidying_eval2-auto[

```
# A tibble: 110 x 6
# Groups:   NOM_REGION [22]
  NOM_REGION Year      pop                             geometry    area     dens
  <chr>      <chr>   <dbl>                        <POLYGON [m]>  [km^2] [1/km^2]
1 ALSACE     p1999 1732588 ((1040442 6789985, 1040405 6789659,… 8319.64 208.2528
2 ALSACE     p2007 1827248 ((1040442 6789985, 1040405 6789659,… 8319.64 219.6307
3 ALSACE     p2012 1859869 ((1040442 6789985, 1040405 6789659,… 8319.64 223.5516
4 ALSACE     p2017 1889589 ((1040442 6789985, 1040405 6789659,… 8319.64 227.1239
# … with 106 more rows
```
…
*region_complete
```
]
 
.panel2-tidying_eval2-auto[

```
# A tibble: 110 x 6
# Groups:   NOM_REGION [22]
  NOM_REGION Year      pop                             geometry    area     dens
  <chr>      <chr>   <dbl>                        <POLYGON [m]>  [km^2] [1/km^2]
1 ALSACE     p1999 1732588 ((1040442 6789985, 1040405 6789659,… 8319.64 208.2528
2 ALSACE     p2007 1827248 ((1040442 6789985, 1040405 6789659,… 8319.64 219.6307
3 ALSACE     p2012 1859869 ((1040442 6789985, 1040405 6789659,… 8319.64 223.5516
4 ALSACE     p2017 1889589 ((1040442 6789985, 1040405 6789659,… 8319.64 227.1239
# … with 106 more rows
```
…
```r
longline_dta <- read.table('https://raw.githubusercontent.com/MarieEtienne/MarieEtienne.github.io/master/datasets/LonglineExample.csv', 
           sep = ";", 
           header= TRUE, 
           skip = 3) %>% 
  as_tibble() %>% 
  rename(Nyellow = Nyelloweye_caught, Area = DFO_STAT_AREA_CODE,
         Lat = Lat_start , Long = Lon_start,
         soaktime = soaktime_mn) %>%
  select(Year, Area, Lat, Long, soaktime, Nyellow)
longline_dta %>% print(n=5)
```

```
# A tibble: 210 x 6
   Year  Area   Lat  Long soaktime Nyellow
  <int> <int> <dbl> <dbl>    <int>   <int>
1  2003    12  50.8 -128.      127       6
2  2003    12  50.9 -128.      128       0
3  2003    12  50.9 -128.      127       3
4  2003    12  50.9 -127.      122       0
5  2003    12  50.9 -127.      134       2
# … with 205 more rows
```
…
